dimensions,value,unit
$A_{XS}$,10.52,$\text{cm}^2$
$D_{hydraulic~heated~section}$,1.467,cm
$L_{heated~section}$,163.83,cm
$L_{top~head}$,8.89,cm
$L_{bottom~head}$,19.685,cm
Heater Wall Thicknss,0.1905,cm
$ID$,3.81,cm
$OD$,$\text{4.0}$,cm
Twisted Tape Diameter,2.54,cm
Twisted Tape Thickness,0.122,cm
Twisted Tape Total Length,192.405,cm
Placeholder Twisted Tape Heat Transfer Area (Heated Section),3950,$\text{cm}^2$
Placeholder Twisted Tape Heat Transfer Area (Top Head),214.3,$\text{cm}^2$
Placeholder Twisted Tape Heat Transfer Area (Bottom Head),474.6,$\text{cm}^2$
Placeholder Twisted Tape Heat Transfer Area,4638.9,$\text{cm}^2$
