heater_common_property,heated_section_values,inlet_values,outlet_values
Length,1.676 m,0.46783 m,0.35458 m
Hydraulic Diameter,0.01467 m,0.01467 m,0.01467 m
Flow Area,0.00105 $m^2$,0.00105 $m^2$,0.00105 $m^2$
Wall Thickness,0.001905 m,0.0083058 m,0.0083058 m
