guessed_radius_cm,keff,keff_uncertainty
0.1,1.4556561487048159,0.000667333655713596
1.6,1.356718989601036,0.0006625796614211239
0.85,1.4347413297728338,0.0006867964389203853
1.225,1.3981048606767132,0.0006297709982441253
1.4125,1.3789700018504951,0.0006781710607195687
1.50625,1.367066947115554,0.0007142379282373833
1.459375,1.3739299084259688,0.0007264677936552964
1.4828125,1.3685933263788344,0.0006347453241520281
1.47109375,1.3712507342298528,0.0006695873920095865
1.476953125,1.3706714674917093,0.000670073800740468
1.4798828125,1.3697877821443583,0.0006638353120350113
1.48134765625,1.3710588678993865,0.0006718904727021438
1.4933593750000003,1.36863,0.00070
