massFlowrateKilogramPerSecondRaw,massFlowrateThreeSigFig,massFlowrateErrorKgPerSec,LoopPressureDropPascalsDigitalTwin,LoopPressureDropPascalsExperimentalCorrelation,LoopPressureDropCorrelationError,LoopPressureDropPascalsExperimentalCorrelationRounded,ResidualPascalRaw,ResidualPascalRounded,ResidualPercentRaw,ResidualPercentOneSigFig,massFlowrateThreeSigFigWithNegative,LoopPressureDropPascalsDigitalTwinWithNegative,LoopPressureDropPascalsExperimentalCorrelationRoundedWithNegative
0.177244908026967,0.177,0.002,16000,15922.6579415608,88.3182875084385,15920,77.3420584392006,80,0.485735853417569,0.5,0.177,16000,15920
0.170310146673547,0.170,0.002,15000,14923.7703057874,88.3182875084385,14920,76.2296942125995,80,0.510793805122006,0.5,0.170,15000,14920
0.148075495035168,0.148,0.002,12000,11927.5042165818,88.3182875084385,11930,72.4957834182005,70,0.607803460823059,0.6,0.148,12000,11930
0.131771919439456,0.132,0.002,10000,9930.4690584663,88.3182875084385,9930,69.5309415336997,70,0.700177817627059,0.7,0.132,10000,9930
0.113884113553963,0.114,0.002,8000,7934.04386397747,88.3182875084385,7930,65.9561360225298,70,0.831305411884437,0.8,0.114,8000,7930
0.0938364744862152,0.0938,0.001,6000,5938.62130735176,88.3182875084385,5940,61.3786926482399,60,1.0335512145261,1,0.0938,6000,5940
0.0705892376540478,0.0706,0.0009,4000,3945.07506990392,88.3182875084385,3950,54.9249300960801,50,1.39224042946837,1,0.0706,4000,3950
0.0418492074075506,0.0418,0.0006,2000,1956.04747077116,88.3182875084385,1960,43.9525292288399,40,2.24700728819796,2,0.0418,2000,1960
0.0236095627792779,0.0236,0.0003,1000,966.458456749645,88.3182875084385,970,33.541543250355,30,3.47056234193041,3,0.0236,1000,970
0.0126957728502732,0.0127,0.0002,500,475.601336467119,88.3182875084385,480,24.398663532881,20,5.13006622607921,5,0.0127,500,480
0.00526997203716271,0.00527,0.00007,200,184.96496939254,88.3182875084385,180,15.03503060746,20,8.12858275642024,8,0.00527,200,180
0.00262589191414334,0.00263,0.00004,100,89.9534554362619,88.3182875084385,90,10.0465445637381,10,11.1686032682277,10,0.00263,100,90
0,0,0,0,0,88.3182875084385,0,0,0,,,0,0,0
,,,,,,,,,,,-0.0418,-2000,outside data range
,,,,,,,,,,,-0.132,-10000,outside data range
